<?xml version="1.0" encoding="UTF-8" standalone="no"?>
<svg width="442px" height="222px" viewBox="0 0 442 222" version="1.1" xmlns="http://www.w3.org/2000/svg" xmlns:xlink="http://www.w3.org/1999/xlink">
    <!-- Generator: Sketch 47.1 (45422) - http://www.bohemiancoding.com/sketch -->
    <title>Group</title>
    <desc>Created with Sketch.</desc>
    <defs></defs>
    <g id="Page-1" stroke="none" stroke-width="1" fill="none" fill-rule="evenodd">
        <g id="Group">
            <g id="CotoClub-Logo-Standard[RGB]">
                <path d="M214.897,77.177 C216.037,79.685 218.431,81.507 221.507,81.507 C226.408,81.507 228.348,79.002 228.348,72.56 L228.348,48.853 C228.348,47.713 228.916,47.086 230.056,47.086 L230.571,47.086 C231.652,47.086 232.224,47.713 232.224,48.853 L232.224,72.56 C232.224,80.938 228.86,84.87 221.507,84.87 C216.38,84.87 212.618,81.68 212.618,79.515 C212.618,77.974 214.783,76.948 214.897,77.177" id="Fill-1" fill="#1B1A19"></path>
                <path d="M247.842,81.735 C253.426,81.735 257.586,78.261 257.586,73.415 L257.586,70.907 L255.992,70.966 C246.702,71.306 241.915,72.958 241.915,77.232 C241.915,79.969 244.136,81.735 247.842,81.735 Z M257.018,68.001 L257.586,68.001 L257.586,67.031 C257.586,62.358 254.853,59.795 249.951,59.795 C245.563,59.795 242.768,62.016 241.288,64.811 C241.288,64.866 239.179,64.638 239.179,62.643 C239.179,60.706 243.055,56.376 250.235,56.376 C257.132,56.376 261.233,60.363 261.233,66.917 L261.233,84.015 C261.233,84.129 260.665,84.416 259.979,84.416 C258.726,84.416 257.645,83.789 257.645,80.824 L257.645,79.799 C255.479,82.934 251.832,84.814 247.499,84.814 C241.572,84.814 238.153,81.794 238.153,77.232 C238.153,70.907 244.479,68.285 257.018,68.001 L257.018,68.001 Z" id="Fill-2" fill="#1B1A19"></path>
                <path d="M281.926,81.621 C287.683,81.621 291.5,77.177 291.5,70.623 C291.5,64.239 287.51,59.622 282.04,59.622 C277.309,59.622 274.004,62.13 272.293,66.064 L272.293,72.445 C272.293,77.634 276.796,81.621 281.926,81.621 Z M272.352,93.647 C272.352,95.016 271.666,95.414 270.699,95.414 L270.301,95.414 C269.331,95.414 268.645,95.016 268.645,93.647 L268.645,57.229 C268.645,57.117 269.217,56.83 269.899,56.83 C271.153,56.83 272.293,57.457 272.293,60.422 L272.293,61.617 C274.745,58.257 277.936,56.376 282.438,56.376 C289.619,56.376 295.262,61.96 295.262,70.564 C295.262,79.113 289.733,84.87 282.21,84.87 C277.367,84.87 273.89,82.307 272.352,79.685 L272.352,93.647 L272.352,93.647 Z" id="Fill-3" fill="#1B1A19"></path>
                <path d="M309.058,81.735 C314.642,81.735 318.802,78.261 318.802,73.415 L318.802,70.907 L317.208,70.966 C307.918,71.306 303.131,72.958 303.131,77.232 C303.131,79.969 305.352,81.735 309.058,81.735 Z M318.233,68.001 L318.802,68.001 L318.802,67.031 C318.802,62.358 316.068,59.795 311.167,59.795 C306.778,59.795 303.983,62.016 302.504,64.811 C302.504,64.866 300.395,64.638 300.395,62.643 C300.395,60.706 304.27,56.376 311.451,56.376 C318.348,56.376 322.449,60.363 322.449,66.917 L322.449,84.015 C322.449,84.129 321.881,84.416 321.195,84.416 C319.941,84.416 318.86,83.789 318.86,80.824 L318.86,79.799 C316.695,82.934 313.048,84.814 308.715,84.814 C302.788,84.814 299.369,81.794 299.369,77.232 C299.369,70.907 305.694,68.285 318.233,68.001 L318.233,68.001 Z" id="Fill-4" fill="#1B1A19"></path>
                <path d="M329.864,57.229 C329.864,57.117 330.436,56.83 331.118,56.83 C332.372,56.83 333.512,57.457 333.512,60.422 L333.512,61.333 C335.393,58.427 338.527,56.376 342.746,56.376 C349.927,56.376 353.516,61.163 353.516,68.344 L353.516,82.649 C353.516,84.015 352.833,84.416 351.863,84.416 L351.465,84.416 C350.495,84.416 349.812,84.015 349.812,82.649 L349.812,68.572 C349.812,63.158 347.135,59.851 342.518,59.851 C338.299,59.851 335.164,62.188 333.57,65.607 L333.57,82.649 C333.57,84.015 332.885,84.416 331.918,84.416 L331.52,84.416 C330.55,84.416 329.864,84.015 329.864,82.649 L329.864,57.229" id="Fill-5" fill="#1B1A19"></path>
                <path d="M381.503,68.458 C381.16,63.1 377.855,59.622 372.784,59.622 C367.654,59.622 363.723,63.27 362.923,68.458 L381.503,68.458 Z M372.784,56.376 C380.419,56.376 385.435,61.79 385.435,70.052 L385.435,70.395 C385.435,71.42 385.036,71.648 383.896,71.648 L362.809,71.648 C363.096,77.461 367.311,81.565 373.124,81.565 C378.424,81.565 380.82,79.286 382.414,76.72 C382.528,76.55 384.579,77.063 384.579,78.829 C384.579,80.71 380.478,84.87 373.124,84.87 C364.862,84.87 359.105,79.058 359.105,70.737 C359.105,62.473 364.918,56.376 372.784,56.376 L372.784,56.376 Z" id="Fill-6" fill="#1B1A19"></path>
                <path d="M391.139,77.347 C392.961,79.854 395.926,81.735 400.429,81.735 C404.932,81.735 407.439,79.913 407.439,77.177 C407.439,73.928 404.589,73.245 399.459,72.161 C395.243,71.25 389.94,70.052 389.94,64.582 C389.94,59.736 394.045,56.376 400.314,56.376 C406.924,56.376 410.346,59.511 410.346,61.562 C410.346,62.985 408.406,63.671 408.292,63.498 C406.754,61.163 404.018,59.511 400.314,59.511 C395.87,59.511 393.474,61.392 393.474,64.069 C393.474,66.976 396.04,67.772 401.056,68.856 C405.444,69.826 411.028,71.021 411.028,76.605 C411.028,81.621 406.924,84.87 400.314,84.87 C393.075,84.87 389.144,81.396 389.144,79.342 C389.144,77.804 391.024,77.232 391.139,77.347" id="Fill-7" fill="#1B1A19"></path>
                <path d="M437.647,68.458 C437.305,63.1 434,59.622 428.929,59.622 C423.799,59.622 419.867,63.27 419.067,68.458 L437.647,68.458 Z M428.929,56.376 C436.563,56.376 441.579,61.79 441.579,70.052 L441.579,70.395 C441.579,71.42 441.181,71.648 440.041,71.648 L418.953,71.648 C419.24,77.461 423.456,81.565 429.268,81.565 C434.568,81.565 436.965,79.286 438.559,76.72 C438.673,76.55 440.724,77.063 440.724,78.829 C440.724,80.71 436.622,84.87 429.268,84.87 C421.007,84.87 415.25,79.058 415.25,70.737 C415.25,62.473 421.062,56.376 428.929,56.376 L428.929,56.376 Z" id="Fill-8" fill="#1B1A19"></path>
                <path d="M232.449,100.629 C241.285,100.629 246.187,105.759 246.187,107.924 C246.187,109.919 244.019,110.432 243.907,110.262 C241.569,106.216 236.782,103.992 232.338,103.992 C223.9,103.992 217.974,110.49 217.974,119.722 C217.974,128.897 224.073,135.507 232.449,135.507 C237.922,135.507 242.653,132.715 244.361,128.271 C244.42,128.042 246.869,128.555 246.869,130.55 C246.869,132.943 241.798,138.87 232.279,138.87 C221.507,138.87 213.986,131.062 213.986,119.836 C213.986,108.551 221.565,100.629 232.449,100.629" id="Fill-9" fill="#22B1A4"></path>
                <path d="M252.86,99.773 C252.86,99.659 253.429,99.375 254.114,99.375 C255.368,99.375 256.563,100.002 256.563,102.967 L256.563,136.649 C256.563,138.015 255.881,138.416 254.911,138.416 L254.513,138.416 C253.543,138.416 252.86,138.015 252.86,136.649 L252.86,99.773" id="Fill-10" fill="#22B1A4"></path>
                <path d="M264.26,112.597 C264.26,111.229 264.942,110.83 265.912,110.83 L266.311,110.83 C267.28,110.83 267.963,111.229 267.963,112.597 L267.963,126.674 C267.963,132.146 270.699,135.395 275.542,135.395 C279.477,135.395 282.608,133.058 284.205,129.639 L284.205,112.597 C284.205,111.229 284.891,110.83 285.857,110.83 L286.256,110.83 C287.226,110.83 287.911,111.229 287.911,112.597 L287.911,138.015 C287.911,138.129 287.34,138.416 286.657,138.416 C285.403,138.416 284.264,137.789 284.264,134.824 L284.264,133.969 C282.324,136.875 279.189,138.87 275.029,138.87 C267.849,138.87 264.26,134.083 264.26,126.902 L264.26,112.597" id="Fill-11" fill="#22B1A4"></path>
                <path d="M308.832,135.621 C314.589,135.621 318.406,131.177 318.406,124.623 C318.406,118.239 314.416,113.622 308.946,113.622 C304.215,113.622 300.91,116.13 299.199,120.064 L299.199,126.445 C299.199,131.634 303.702,135.621 308.832,135.621 Z M295.552,99.773 C295.552,99.659 296.123,99.375 296.806,99.375 C298.06,99.375 299.258,100.002 299.258,102.967 L299.258,115.503 C301.707,112.257 304.842,110.376 309.345,110.376 C316.525,110.376 322.168,115.96 322.168,124.564 C322.168,133.113 316.64,138.87 309.116,138.87 C304.215,138.87 300.74,136.591 299.199,134.027 L299.199,136.649 C299.199,138.015 298.572,138.416 297.605,138.416 L297.207,138.416 C296.237,138.416 295.552,138.015 295.552,136.649 L295.552,99.773 L295.552,99.773 Z" id="Fill-12" fill="#22B1A4"></path>
                <path d="M87.172,88.242 C86.261,87.208 85.191,86.408 83.961,85.843 C82.73,85.277 81.4,84.993 79.974,84.993 C78.547,84.993 77.217,85.289 75.986,85.878 C74.756,86.47 73.687,87.281 72.775,88.315 C71.864,89.35 71.149,90.58 70.634,92.007 C70.118,93.437 69.857,94.986 69.857,96.659 C69.857,98.382 70.118,99.943 70.634,101.347 C71.149,102.75 71.864,103.969 72.775,105.003 C73.687,106.037 74.756,106.837 75.986,107.402 C77.217,107.968 78.547,108.252 79.974,108.252 C81.4,108.252 82.73,107.968 83.961,107.402 C85.191,106.837 86.261,106.037 87.172,105.003 C88.083,103.969 88.798,102.738 89.313,101.312 C89.832,99.885 90.09,98.309 90.09,96.586 C90.09,94.913 89.832,93.36 89.313,91.934 C88.798,90.507 88.083,89.276 87.172,88.242" id="Fill-13" fill="#22B1A4"></path>
                <path d="M158.867,88.242 C157.956,87.208 156.884,86.408 155.656,85.843 C154.423,85.277 153.096,84.993 151.669,84.993 C150.239,84.993 148.909,85.289 147.682,85.878 C146.451,86.47 145.379,87.281 144.468,88.315 C143.557,89.35 142.845,90.58 142.329,92.007 C141.811,93.437 141.553,94.986 141.553,96.659 C141.553,98.382 141.811,99.943 142.329,101.347 C142.845,102.75 143.557,103.969 144.468,105.003 C145.379,106.037 146.451,106.837 147.682,107.402 C148.909,107.968 150.239,108.252 151.669,108.252 C153.096,108.252 154.423,107.968 155.656,107.402 C156.884,106.837 157.956,106.037 158.867,105.003 C159.778,103.969 160.49,102.738 161.009,101.312 C161.524,99.885 161.782,98.309 161.782,96.586 C161.782,94.913 161.524,93.36 161.009,91.934 C160.49,90.507 159.778,89.276 158.867,88.242" id="Fill-14" fill="#22B1A4"></path>
                <path d="M151.669,116.669 C148.517,116.669 145.687,116.127 143.176,115.043 C140.665,113.962 138.538,112.497 136.789,110.651 C135.043,108.806 133.701,106.676 132.767,104.265 C131.829,101.854 131.363,99.316 131.363,96.659 C131.363,93.952 131.829,91.392 132.767,88.98 C133.701,86.569 135.043,84.439 136.789,82.594 C138.538,80.748 140.665,79.283 143.176,78.199 C145.687,77.118 148.517,76.576 151.669,76.576 C154.818,76.576 157.637,77.118 160.121,78.199 C162.608,79.283 164.724,80.748 166.473,82.594 C168.219,84.439 169.561,86.569 170.495,88.98 C171.43,91.392 171.898,93.952 171.898,96.659 C171.898,99.316 171.43,101.854 170.495,104.265 C169.561,106.676 168.23,108.806 166.508,110.651 C164.785,112.497 162.67,113.962 160.159,115.043 C157.648,116.127 154.818,116.669 151.669,116.669 Z M124.461,115.711 C122.516,116.3 120.485,116.596 118.37,116.596 C116.99,116.596 115.698,116.423 114.491,116.077 C113.284,115.734 112.227,115.181 111.318,114.416 C110.407,113.654 109.681,112.67 109.139,111.463 C108.597,110.256 108.327,108.794 108.327,107.068 L108.327,84.844 L103.306,84.844 L103.306,77.241 L108.327,77.241 L108.327,64.688 L118.221,64.688 L118.221,77.241 L126.418,77.241 L126.418,84.844 L118.221,84.844 L118.221,103.746 C118.221,105.126 118.59,106.099 119.328,106.664 C120.066,107.229 120.954,107.514 121.985,107.514 C123.02,107.514 124.027,107.341 125.015,106.995 C125.999,106.652 126.787,106.356 127.376,106.11 L129.371,113.936 C128.041,114.527 126.403,115.119 124.461,115.711 Z M98.803,104.265 C97.865,106.676 96.538,108.806 94.815,110.651 C93.093,112.497 90.975,113.962 88.464,115.043 C85.956,116.127 83.123,116.669 79.974,116.669 C76.824,116.669 73.994,116.127 71.483,115.043 C68.973,113.962 66.843,112.497 65.097,110.651 C63.348,108.806 62.006,106.676 61.071,104.265 C60.137,101.854 59.668,99.316 59.668,96.659 C59.668,93.952 60.137,91.392 61.071,88.98 C62.006,86.569 63.348,84.439 65.097,82.594 C66.843,80.748 68.973,79.283 71.483,78.199 C73.994,77.118 76.824,76.576 79.974,76.576 C83.123,76.576 85.941,77.118 88.429,78.199 C90.913,79.283 93.031,80.748 94.777,82.594 C96.523,84.439 97.865,86.569 98.803,88.98 C99.737,91.392 100.206,93.952 100.206,96.659 C100.206,99.316 99.737,101.854 98.803,104.265 Z M49.924,113.862 C46.871,115.734 43.203,116.669 38.923,116.669 C35.771,116.669 32.94,116.127 30.43,115.043 C27.919,113.962 25.777,112.497 24.008,110.651 C22.235,108.806 20.87,106.664 19.909,104.227 C18.948,101.789 18.468,99.243 18.468,96.586 C18.468,93.879 18.937,91.318 19.871,88.907 C20.806,86.496 22.162,84.378 23.932,82.556 C25.704,80.736 27.846,79.283 30.356,78.199 C32.867,77.118 35.697,76.576 38.847,76.576 C43.08,76.576 46.687,77.487 49.666,79.307 C52.643,81.129 54.869,83.517 56.346,86.47 L46.675,89.423 C45.837,87.996 44.729,86.9 43.353,86.139 C41.973,85.374 40.446,84.993 38.773,84.993 C37.347,84.993 36.017,85.277 34.786,85.843 C33.556,86.408 32.486,87.196 31.575,88.204 C30.664,89.215 29.949,90.434 29.434,91.86 C28.918,93.287 28.657,94.863 28.657,96.586 C28.657,98.309 28.93,99.885 29.472,101.312 C30.011,102.738 30.737,103.969 31.648,105.003 C32.56,106.037 33.629,106.837 34.859,107.402 C36.09,107.968 37.396,108.252 38.773,108.252 C40.546,108.252 42.181,107.807 43.684,106.922 C45.184,106.037 46.232,104.953 46.821,103.673 L56.495,106.626 C55.165,109.579 52.974,111.993 49.924,113.862 Z M185.567,71.405 C174.521,15.783 125.688,-9.138 74.228,4.231 C19.329,18.494 -9.986,58.426 3.805,114.504 C17.48,170.112 62.687,203.862 101.401,221.311 C101.401,221.311 95.088,204.627 92.078,182.618 C118.98,182.862 203.73,162.861 185.567,71.405 L185.567,71.405 Z" id="Fill-15" fill="#22B1A4"></path>
            </g>
        </g>
    </g>
</svg>