<?xml version="1.0" encoding="UTF-8" standalone="no"?>
<svg width="169px" height="138px" viewBox="0 0 169 138" version="1.1" xmlns="http://www.w3.org/2000/svg" xmlns:xlink="http://www.w3.org/1999/xlink">
    <!-- Generator: Sketch 48.2 (47327) - http://www.bohemiancoding.com/sketch -->
    <title>logo-arrow-piece</title>
    <desc>Created with Sketch.</desc>
    <defs></defs>
    <g id="Pages" stroke="none" stroke-width="1" fill="none" fill-rule="evenodd">
        <g id="logo-arrow-piece">
            <path d="M207.773809,28.8249214 L184,-12.9856123 C144.666667,-62.3206236 129,-59.3205216 137,-3.98530617 C141.070644,24.1709425 145.831712,50.2558524 151.283202,74.2694235 C158.28137,107.362216 166.555563,131.166544 168.575248,136.761073 C168.714334,137.174927 168.853712,137.587902 168.993382,138 C68.5424874,92.595875 -48.7374269,4.78781154 -84.2173445,-139.872281 C-120.003113,-285.777566 -43.9356685,-389.67438 98.5229056,-426.782427 C232.057076,-461.568947 358.77738,-396.727352 387.440738,-252.010127 C424.269108,-66.0639167 298.028023,6.35416142 207.773809,28.8249214 Z" id="Combined-Shape" fill="#00BBB4"></path>
            <path d="" id="Path-3" stroke="#979797"></path>
        </g>
    </g>
</svg>