<?xml version="1.0" encoding="UTF-8" standalone="no"?>
<svg width="1600px" height="100%" viewBox="0 0 1600 50" version="1.1" xmlns="http://www.w3.org/2000/svg" xmlns:xlink="http://www.w3.org/1999/xlink">
    <!-- Generator: Sketch 48.2 (47327) - http://www.bohemiancoding.com/sketch -->
    <title>Combined-Shape</title>
    <desc>Created with Sketch.</desc>
    <defs></defs>
    <g id="Page-1" stroke="none" stroke-width="1" fill="none" fill-rule="evenodd">
        <g id="negative-curve-aqua" fill="#00BBB4" fill-rule="nonzero">
            <path d="M1600,0 L1600,50 L0,50 L0,0 C203.673092,30.0556966 486.870116,48.6885698 800,48.6885698 C1113.12988,48.6885698 1396.32691,30.0556966 1600,0 Z" id="Combined-Shape"></path>
        </g>
    </g>
</svg>